1
1
Daniel Mello Konflanz
000.000.000-00
(49) 3333-3333
(49) 4444-4444

1
Joao Pedro
000.000.000-11
(49) 1111-1111
(49) 4444-3333

1
Guilherme
000.000.000-22
(49) 2222-1111
(49) 4444-3333

1
Sabrina
000.000.333-22
(49) 2277-1111
(49) 4422-3333

1
Mateus
111.000.333-22
(48) 2267-1111
(49) 3422-3366

1
Ronaldo
111.033.333-22
(48) 6666-1111
(49) 3222-3366

1
Renato
111.222.333-22
(48) 6622-1122
(49) 3255-3556

1
Vanessa
111.555.333-22
(48) 7777-1122
(49) 3288-3556

1
Caio
888.555.333-22
(48) 8877-1122
(49) 3288-2256

1
Sergio
888.566.333-22
(48) 8877-8899
(49) 3988-2256

1
Felipe
888.566.333-22
(49) 8877-5555
(49) 5555-2256

1
Vinicius
888.999.333-99
(49) 8997-5555
(49) 5995-2256

1
Anderson
111.999.333-99
(49) 8997-1115
(49) 5111-2256

1
Elias
122.999.333-99
(49) 2297-1115
(49) 5122-2256
